# Blender v2.79 (sub 0) OBJ File: 'dispersion.blend'
# www.blender.org
mtllib dispersion.mtl
o Plane.001_Plane.002
v -1.186375 0.018358 0.070401
v -1.186375 0.018358 0.194323
v -1.186375 0.997538 0.070401
v -1.186375 0.997538 0.194323
vn 1.0000 0.0000 0.0000
usemtl Material
s off
f 1//1 4//1 2//1
f 1//1 3//1 4//1
o Plane
v 5.000000 0.00000 5.000000
v -5.000000 0.00000 5.000000
v 5.000000 0.00000 -5.000000
v -5.000000 0.00000 -5.000000
vn 0.0000 1.0000 0.0000
usemtl _White
s off
f 5//2 8//2 6//2
f 5//2 7//2 8//2
o Circle
v 0.048401 0.001000 -0.144035
v -0.588996 0.001000 0.442245
v 0.237436 0.001000 0.701107
v 0.048401 1.001000 -0.144035
v -0.588996 1.001000 0.442245
v 0.237436 1.001000 0.701107
vn 0.0000 -1.0000 0.0000
vn 0.0000 1.0000 -0.0000
vn 0.9759 0.0000 -0.2183
vn -0.6770 0.0000 -0.7360
vn -0.2989 0.0000 0.9543
usemtl dispersion
s off
f 11//3 10//3 9//3
f 14//4 12//4 13//4
f 12//5 11//5 9//5
f 13//6 9//6 10//6
f 14//7 10//7 11//7
f 12//5 14//5 11//5
f 13//6 12//6 9//6
f 14//7 13//7 10//7
